\relax 
\catcode `"\active 
\providecommand \exsheets@question@property [3]{}
\providecommand \exsheets@save@number [2]{}
\providecommand \exsheets@sum@of@points [1]{}
\providecommand \exsheets@sum@of@bonus [1]{}

\exsheets@used@id {1}{1}
\exsheets@save@number {1}{-0-1}
\exsheets@question@property {1}{counter}{1.}
\exsheets@question@property {1}{points}{2}
\exsheets@used@id {2}{2}
\exsheets@save@number {2}{-0-2}
\exsheets@question@property {2}{counter}{2.}
\exsheets@question@property {2}{points}{2}
\exsheets@used@id {3}{3}
\exsheets@save@number {3}{-0-3}
\exsheets@question@property {3}{counter}{3.}
\exsheets@question@property {3}{points}{2}
\exsheets@used@id {4}{4}
\exsheets@save@number {4}{-0-4}
\exsheets@question@property {4}{counter}{4.}
\exsheets@question@property {4}{points}{2}
\select@language{ngerman}
\@writefile{toc}{\select@language{ngerman}}
\@writefile{lof}{\select@language{ngerman}}
\@writefile{lot}{\select@language{ngerman}}
\exsheets@used@id {5}{5}
\exsheets@save@number {5}{-0-5}
\exsheets@question@property {5}{counter}{5.}
\exsheets@question@property {5}{points}{2}
\exsheets@used@id {6}{6}
\exsheets@save@number {6}{-0-6}
\exsheets@question@property {6}{counter}{6.}
\exsheets@question@property {6}{points}{6}
\exsheets@used@id {7}{7}
\exsheets@save@number {7}{-0-7}
\exsheets@question@property {7}{counter}{7.}
\exsheets@question@property {7}{points}{3}
\exsheets@used@id {8}{8}
\exsheets@save@number {8}{-0-8}
\exsheets@question@property {8}{counter}{8.}
\exsheets@question@property {8}{points}{5}
\exsheets@used@id {9}{9}
\exsheets@save@number {9}{-0-9}
\exsheets@question@property {9}{counter}{9.}
\exsheets@question@property {9}{points}{3}
\@writefile{toc}{\contentsline {section}{\nonumberline Ergebnis}{4}}
\@writefile{toc}{\contentsline {section}{\nonumberline L\IeC {\"o}sungen}{5}}
\exsheets@sum@of@points {27}
\exsheets@sum@of@bonus {0}
\gdef \numberofquestions {9}
\newlabel{LastPage}{{}{6}}
\xdef\lastpage@lastpage{6}
\gdef\lastpage@lastpageHy{}
